2018-01-01,2018-06-01,Storkund,
Kass,3,balk L=1.5,915.0
Kass,10,stämp,3050.0
Kass,2,grind,490.0
Såld,26,grind,7930.0
Såld,23,balk L=1.5,7015.0
Såld,12,ALU Ram180,120.0
Såld,2,"ALU Balk L= 1,5",260.0
